…
seasons_flights
```

    ## # A tibble: 77 x 4
    ## # Groups:   season [4]
    ##    season  hour dep_delays_only all_delays
    ##    <chr>  <dbl>           <dbl>      <dbl>
    ##  1 Spring     5          -0.684     -2.67 
    ##  2 Spring     6           1.11      -2.12 
    ##  3 Spring     7           1.18      -2.88 
    ##  4 Spring     8           3.25       0.728
    ##  5 Spring     9           3.73       0.808
    ##  6 Spring    10           6.17       3.34 
    ##  7 Spring    11           8.42       6.40 
    ##  8 Spring    12           9.05       6.64 
    ##  9 Spring    13          11.9        9.71 
    ## 10 Spring    14          15.1       12.8  
    ## # ... with 67 more rows
…
# Delays by origin airport

``` r
org_airport_flights = flights %>% 
  group_by(origin, hour) %>% 
  summarise(dep_delays_only = mean(dep_delay, na.rm = T),
            all_delays = (sum(dep_delay, na.rm = TRUE) + sum(arr_delay, na.rm = TRUE)) / (sum(!is.na(dep_delay)) + sum(!is.na(arr_delay))))

org_airport_flights
```

    ## # A tibble: 57 x 4
    ## # Groups:   origin [3]
    ##    origin  hour dep_delays_only all_delays
    ##    <chr>  <dbl>           <dbl>      <dbl>
    ##  1 EWR        1         NaN       NaN     
    ##  2 EWR        5           0.649    -2.55  
    ##  3 EWR        6           3.50      0.117 
    ##  4 EWR        7           4.04      0.0447
    ##  5 EWR        8           5.50      3.35  
    ##  6 EWR        9           5.84      2.74  
    ##  7 EWR       10           7.79      4.30  
    ##  8 EWR       11           7.96      4.50  
    ##  9 EWR       12          11.6       8.17  
    ## 10 EWR       13          13.6      10.9   
    ## # ... with 47 more rows
…
# Delays by plane manufactured year

``` r
man_year_flights = flights %>% 
  left_join(rename(select(planes, tailnum, year), year_manufactured = year), by="tailnum") %>% 
  drop_na(year_manufactured) %>% 
  group_by(year_manufactured, hour) %>% 
  summarise(dep_delays_only = mean(dep_delay, na.rm = T),
            all_delays = (sum(dep_delay, na.rm = TRUE) + sum(arr_delay, na.rm = TRUE)) / (sum(!is.na(dep_delay)) + sum(!is.na(arr_delay))))

man_year_flights
```

    ## # A tibble: 726 x 4
    ## # Groups:   year_manufactured [46]
    ##    year_manufactured  hour dep_delays_only all_delays
    ##                <int> <dbl>           <dbl>      <dbl>
    ##  1              1956     7            8.33       4.67
    ##  2              1956     8            8          9.5 
    ##  3              1956    10            5          3.5 
    ##  4              1956    14           -3          1.5 
    ##  5              1956    15            7.6       11.8 
    ##  6              1956    17            2.5      -12.4 
    ##  7              1959     6           -4.29      -6.07
    ##  8              1959     7            6.93       2.7 
    ##  9              1959     8           98.5      104.  
    ## 10              1959     9           -1.47      -4.26
    ## # ... with 716 more rows
…
